logged_at,subreddit,title,score,created,id,author,permalink,url
1643716803,facepalm,Math is a Myth.,145137,1643650012,sh6ppv,_-ZORO-_,/r/facepalm/comments/sh6ppv/math_is_a_myth/,https://i.redd.it/ypuj1e6u52f81.jpg
1643730554,memes,Is it really that glorious?,149014,1643656416,sh9drx,Dansydemansy,/r/memes/comments/sh9drx/is_it_really_that_glorious/,https://i.redd.it/mff8fvjvo2f81.gif
1643803201,wholesomememes,J.Jonah Jameson was a hero,121612,1643740716,si238i,Demonic_Dante,/r/wholesomememes/comments/si238i/jjonah_jameson_was_a_hero/,https://i.redd.it/q0zmbkrjn9f81.jpg
1643889602,funny,What does it mean when the groundhog DIES?,106193,1643812070,siq0f4,BILESTOAD,/r/funny/comments/siq0f4/what_does_it_mean_when_the_groundhog_dies/,https://i.imgur.com/LoLsGeo.jpg
1643976002,funny,My brother who lives a few states away sent me a letter through the mail,153931,1643912497,sjq9ab,mylesk21,/r/funny/comments/sjq9ab/my_brother_who_lives_a_few_states_away_sent_me_a/,https://i.redd.it/h19szg4cunf81.jpg
1644062402,memes,Shiver me timbers,113622,1643994202,skifoi,Late-Swimmer-3194,/r/memes/comments/skifoi/shiver_me_timbers/,https://i.redd.it/k35a0he8luf81.gif
1644148801,interestingasfuck,"When we sleep, waves of spinal fluid wash over the brain to remove waste",112265,1644068165,sl73eq,ravielvin7,/r/interestingasfuck/comments/sl73eq/when_we_sleep_waves_of_spinal_fluid_wash_over_the/,https://v.redd.it/gdes8qh7p0g81
1644235202,interestingasfuck,My turtle follows me and seeks out affection. Biologist have reached out to me because this is not even close to normal behavior. He just started one day and has never stopped. I don’t know why.,226047,1644172300,sm3sdl,ihateandy2,/r/interestingasfuck/comments/sm3sdl/my_turtle_follows_me_and_seeks_out_affection/,https://v.redd.it/fko4j44oa9g81
1644321601,pics,"On this day in 2020: The world lost the coronavirus whistleblower, doctor 李文亮 (Li Wenliang).",156030,1644237761,smpcx9,Mellanchef,/r/pics/comments/smpcx9/on_this_day_in_2020_the_world_lost_the/,https://i.redd.it/r826olxipeg81.jpg
1644408002,NoStupidQuestions,What are Florida ounces?,92497,1644341371,snppah,snapwillow,/r/NoStupidQuestions/comments/snppah/what_are_florida_ounces/,https://www.reddit.com/r/NoStupidQuestions/comments/snppah/what_are_florida_ounces/
1644494402,funny,Official pinning ceremony for promotion to Sergeant. They let you pick where you want to have the ceremony. New Sargeant chose to have it in the swimming pool.,107445,1644451360,sory5d,yeahthingsarefine,/r/funny/comments/sory5d/official_pinning_ceremony_for_promotion_to/,https://v.redd.it/dpzu3ap0cwg81
1644580801,MadeMeSmile,The happy ending-ft my gf sent this to me,142921,1644539991,splgha,23_GenericRedditor,/r/MadeMeSmile/comments/splgha/the_happy_endingft_my_gf_sent_this_to_me/,https://www.reddit.com/gallery/splgha
1644667201,oddlyterrifying,Biblically Accurate Angel,117081,1644599369,sq4aov,Yachisaorick,/r/oddlyterrifying/comments/sq4aov/biblically_accurate_angel/,https://v.redd.it/6vakdtbqk8h81
1644753601,IdiotsInCars,He told the police i slammed on my brakes,141274,1644680716,squabs,sammystevens,/r/IdiotsInCars/comments/squabs/he_told_the_police_i_slammed_on_my_brakes/,https://v.redd.it/yb6u7o1iafh81
1644840001,nextfuckinglevel,French farmers' art for Tour de France!,124431,1644782365,srrfml,shitgamer52,/r/nextfuckinglevel/comments/srrfml/french_farmers_art_for_tour_de_france/,https://v.redd.it/0fovf51wonh81
1644926401,gaming,"Minesweeper 99 x 99, 1500 mines. Took me about 2.5 hours to finish, nerve-wracking. No one might care, but just wanted to share this.",185100,1644857546,ssf7zr,OtterDeity,/r/gaming/comments/ssf7zr/minesweeper_99_x_99_1500_mines_took_me_about_25/,https://i.redd.it/4fs0rfyewth81.png
1645012802,funny,My bank told me off,145721,1644965832,stfxe8,Jahoe,/r/funny/comments/stfxe8/my_bank_told_me_off/,https://i.redd.it/rzpdve9gu2i81.jpg
1645099202,wholesomememes,How to inspire children.,107989,1645016797,stvh32,TheCheechWizardUnit,/r/wholesomememes/comments/stvh32/how_to_inspire_children/,https://i.redd.it/iq3rekoz17i81.gif
1645185602,MadeMeSmile,The strength of humanity,133575,1645109180,suqhhy,_Xyreo_,/r/MadeMeSmile/comments/suqhhy/the_strength_of_humanity/,https://i.redd.it/ek1l6gqooei81.png
1645272002,gaming,Evolution of gaming graphics!,110957,1645192557,svijft,Square-Enit,/r/gaming/comments/svijft/evolution_of_gaming_graphics/,https://i.redd.it/d7xcwiqlkli81.jpg
1645358402,funny,Perchance.,129869,1645279325,swarj8,peridemon,/r/funny/comments/swarj8/perchance/,https://i.redd.it/wop8sbjjqsi81.png
1645444807,MadeMeSmile,This is so sweet,142567,1645377480,sx65k7,Devfterr,/r/MadeMeSmile/comments/sx65k7/this_is_so_sweet/,https://i.redd.it/a15ih38fu0j81.png
1645531202,MadeMeSmile,Now that's a cool guy,184007,1645445766,sxs5kh,PeasKhichra,/r/MadeMeSmile/comments/sxs5kh/now_thats_a_cool_guy/,https://i.redd.it/uyma7fbhh6j81.jpg
1645617601,MadeMeSmile,"After this man's wife passed away, his children adopted a shelter dog for him to keep him company. Best decision in the world",177117,1645563325,syy2rg,kenezmaa,/r/MadeMeSmile/comments/syy2rg/after_this_mans_wife_passed_away_his_children/,https://v.redd.it/yd7q1o0t6gj81
1645704002,facepalm,Pure political theatre. Putin’s “unscheduled” live emergency meeting with his security council was broadcast at 5pm. Sergei Shoigu &amp; Sergei Lavrov watches both say 11:45.,135923,1645624490,szi1fq,NineteenEighty9,/r/facepalm/comments/szi1fq/pure_political_theatre_putins_unscheduled_live/,https://i.redd.it/2o5lgtcz8lj81.jpg
1645790402,nextfuckinglevel,"Large crowd of antiwar protestors in St. Petersburg, Russia",245396,1645726744,t0hm79,goforth1457,/r/nextfuckinglevel/comments/t0hm79/large_crowd_of_antiwar_protestors_in_st/,https://v.redd.it/vlao01yyotj81
1645876802,memes,Ukraine got CHAD Volodymyr Zelensky.🇺🇦🇺🇦🇺🇦,199229,1645810297,t19inj,I_AM_BATMAN_69,/r/memes/comments/t19inj/ukraine_got_chad_volodymyr_zelensky/,https://i.redd.it/p6hpt00hl0k81.jpg
1645963202,BeAmazed,"President of Ukraine Volodymyr Zelensky rejects asylum offers from Europe: ""I will stay in my country and if I die, I will die with my soldiers.""",246162,1645880546,t1wmau,regian24,/r/BeAmazed/comments/t1wmau/president_of_ukraine_volodymyr_zelensky_rejects/,https://i.redd.it/oom62nvce6k81.png
1646049602,nextfuckinglevel,Russian protestors starting to protect each other from visibly nervous police.,174755,1645974261,t2q39x,-martinique-,/r/nextfuckinglevel/comments/t2q39x/russian_protestors_starting_to_protect_each_other/,https://v.redd.it/0kxj3eqy4ek81
1646136002,interestingasfuck,"Ukrainian ambassador to the UN pretty much tells Putin to kill himself: ""If he wants to kill himself, he doesn't need to use nuclear arsenal. He has to do what the guy in Berlin did in a bunker in May 1945""",248288,1646064452,t3j0tu,PeasKhichra,/r/interestingasfuck/comments/t3j0tu/ukrainian_ambassador_to_the_un_pretty_much_tells/,https://v.redd.it/zjb48tj2llk81
1646222401,interestingasfuck,"In 1996 Ukraine handed over nuclear weapons to Russia ""in exchange for a guarantee never to be threatened or invaded"".",299176,1646153475,t4cdik,IceBuurn,/r/interestingasfuck/comments/t4cdik/in_1996_ukraine_handed_over_nuclear_weapons_to/,https://i.redd.it/q25xyjhvxsk81.png
1646308802,Damnthatsinteresting,Ukrainian authorities have informed citizens that you don't need to declare captured Russian tanks or any equipment they pick up as personal income,162052,1646232740,t51sip,NarcissisticEyes,/r/Damnthatsinteresting/comments/t51sip/ukrainian_authorities_have_informed_citizens_that/,https://i.redd.it/4h8206bmhzk81.jpg
1646395202,interestingasfuck,"In 2004, Russia attempted to assassinate future Ukrainian president Viktor Yuschenko by poisoning him with a chemical found in Agent Orange. He survived the attempt, but his skin was scarred for life",120872,1646329146,t5x1ti,proboardslolv5,/r/interestingasfuck/comments/t5x1ti/in_2004_russia_attempted_to_assassinate_future/,https://i.redd.it/8eaomku2g7l81.jpg
1646481602,gaming,"Chad Elden Ring player shows how it is done with precision, minimal movements and flamboyance.",124812,1646395628,t6hirm,DevGJewel,/r/gaming/comments/t6hirm/chad_elden_ring_player_shows_how_it_is_done_with/,https://gfycat.com/incompatiblenaivebobolink
